{
    "entete": {
        "nom": "Aurélien Avanzino",
        "intitule": [
            "Etudiant en Master MIAGE",
            "Alternant chez Dedalus France"
        ]
    },
    "infos": [
        { "id": "mail", "value": "cita.avan@gmail.com" },
        { "id": "birth", "value": "Né le 02/11/1999" },
        { "id": "permis", "value": "Permis B" }
    ]
}