[
    {
        "id": 0,
        "version": "Version 1.xx",
        "subversion": [
            {
                "id": 0,
                "version": "Version 1.0 (05/05/2021)",
                "subversion": [
                    {"id": 0,"version": "Setting up the project structure"},
                    {"id": 1,"version": "Firebase initialization (Firestor, Hosting, Storage)"},
                    {"id": 2,"version": "Home page (classic CV form)"}
                ]
            },
            {
                "id": 1,
                "version": "Version 1.0.2 (21/07/2021)",
                "subversion": [
                    {"id": 0,"version": "Bugs correction"},
                    {"id": 1,"version": "Dynamic loading content with JSON file"},
                    {"id": 2,"version": "Setting up automatic deployment by GitLab"}
                ]
            }
        ]
    }
]